Disproportionality analysis
…
da_grouped <- 
  drug_event_df |> 
  da(df_colnames = list(group_by="group")) 

print(da_grouped$da_df)

## # A tibble: 1,808 × 24
##    drug   event   group   obs exp_rrr ic2.5    ic ic97.5 exp_prr prr2.5   prr
##    <chr>  <chr>   <dbl> <int>   <dbl> <dbl> <dbl>  <dbl>   <dbl>  <dbl> <dbl>
##  1 Drug_Z Event_1     0    45    26.5  0.3   0.75   1.14    23.4   1.54  1.92
##  2 Drug_Z Event_1     1    43    29.1  0.09  0.56   0.96    26.5   1.28  1.63
##  3 Drug_Z Event_2     0    33    24.6 -0.12  0.42   0.87    23.2   1.07  1.42
##  4 Drug_Z Event_2     1    42    27.8  0.12  0.59   0.99    25.1   1.3   1.67
##  5 Drug_V Event_2     0    34    26.0 -0.14  0.38   0.82    24.6   1.04  1.38
##  6 Drug_V Event_2     1    46    31.0  0.12  0.56   0.95    27.8   1.3   1.66
##  7 Drug_V Event_1     0    40    28.0  0.03  0.51   0.92    25.8   1.21  1.55
##  8 Drug_V Event_1     1    42    32.4 -0.1   0.37   0.77    30.3   1.07  1.38
##  9 Drug_U Event_2     0    42    31.5 -0.06  0.41   0.81    29.1   1.11  1.44
## 10 Drug_U Event_2     1    37    26.8 -0.04  0.46   0.89    24.9   1.14  1.49
## # ℹ 1,798 more rows
## # ℹ 13 more variables: prr97.5 <dbl>, exp_ror <dbl>, ror2.5 <dbl>, ror <dbl>,
## #   ror97.5 <dbl>, n_drug <int>, n_event <int>, n_tot <int>, n_event_prr <int>,
## #   n_tot_prr <int>, b <int>, c <int>, d <int>
…
Where is exp_ic in the output, or what is exp_prr?

A common question regards the output column names, ic is preceded by
“exp_prr”. This is as the information component uses the same expected
count as the Relative Reporting Rate (RRR), which is perhaps more well
known in the pharmacovigilande community.

# Note the fourth column name:
drug_event_df |> 
  da() |> 
  purrr::pluck("da_df") |> 
  dplyr::select(drug:ic97.5) |> 
  print(n=1)

## # A tibble: 1,306 × 7
##   drug   event     obs exp_rrr ic2.5    ic ic97.5
##   <chr>  <chr>   <int>   <dbl> <dbl> <dbl>  <dbl>
## 1 Drug_Z Event_1    88    55.6  0.34  0.66   0.94
## # ℹ 1,305 more rows
…
