Disproportionality analysis using pvutils • pvutils
…
## Number of SDRs

## # A tibble: 4 × 2
##   Name            `Stat sign`
##   <chr>                 <dbl>
## 1 ic2.5                     5
## 2 prr2.5                    6
## 3 ror2.5                    6
## 4 Total DEC count        1306

## 

## Top DECs

## # A tibble: 1,306 × 23

##    drug   event      obs exp_prr ic2.5    ic ror97.5 exp_prr prr2.5   prr ror97.5

##    <chr>  <chr>    <int>   <dbl> <dbl> <dbl>  <dbl>   <dbl>  <dbl> <dbl>   <dbl>

##  1 Drug_Z Event_1     88   55.6   0.34  0.66   0.94   49.8    1.5   1.77    2.09
##  2 Drug_Z Event_2     75   52.4   0.17  0.51   0.82   48.4    1.28  1.55    1.87
##  3 Drug_V Event_2     80   56.9   0.15  0.49   0.79   52.4    1.27  1.53    1.84
##  4 Drug_V Event_1     82   60.4   0.11  0.44   0.73   56.1    1.22  1.46    1.75
##  5 Drug_U Event_2     79   58.3   0.1   0.44   0.74   54.1    1.21  1.46    1.76
##  6 Drug_U Event_1     74   61.8  -0.09  0.26   0.57   59.4    1.03  1.25    1.51
##  7 Drug_C Event_71     3    1.75 -1.41  0.64   1.83    1.23   0.49  2.44   12   
##  8 Drug_I Event_54     3    1.81 -1.45  0.6    1.79    1.55   0.51  1.94    7.43
##  9 Drug_A Event_39     9   12.2  -1.51 -0.42   0.37   13.8    0.31  0.65    1.37
## 10 Drug_R Event_30     3    1.97 -1.55  0.5    1.7     1.92   0.5   1.57    4.89
## # ℹ 1,296 more rows
## # ℹ 12 more variables: exp_ror <dbl>, ror2.5 <dbl>, ror <dbl>, ror97.5 <dbl>,

## #   n_drug <int>, n_event <int>, n_tot <int>, n_event_prr <int>,

## #   n_tot_prr <int>, b <int>, c <int>, d <int>

## # Printing x[['da_df']]

## (Drug-event-combinations sorted according to lower bound of ic)

## # A tibble: 1,306 × 23

##   drug   event     obs exp_prr ic2.5    ic ror97.5 exp_prr prr2.5   prr ror97.5

##   <chr>  <chr>   <int>   <dbl> <dbl> <dbl>  <dbl>   <dbl>  <dbl> <dbl>   <dbl>

## 1 Drug_Z Event_1    88    55.6  0.34  0.66   0.94    49.8   1.5   1.77    2.09
## 2 Drug_Z Event_2    75    52.4  0.17  0.51   0.82    48.4   1.28  1.55    1.87
## 3 Drug_V Event_2    80    56.9  0.15  0.49   0.79    52.4   1.27  1.53    1.84
## # ℹ 1,303 more rows
## # ℹ 12 more variables: exp_ror <dbl>, ror2.5 <dbl>, ror <dbl>, ror97.5 <dbl>,
…
Where is exp_ic in the output, and what is exp_prr?

A common question regards the output column names. In the example
below, ic is preceded by exp_prr. This is as the IC uses
the same expected count as the Relative Reporting Rate (RRR), which
might be more well known to a pharmacovigilance audience than an
exp_ic.

## # A tibble: 1,306 × 7
##   drug   event     obs exp_rrr ic2.5    ic ic97.5
##   <chr>  <chr>   <int>   <dbl> <dbl> <dbl>  <dbl>
## 1 Drug_Z Event_1    88    55.6  0.34  0.66   0.94
## # ℹ 1,305 more rows
…
Controlling the number of digits

Another parameter in da, number_of_digits
controls the rounding of non-count values in the output, including all
expected counts, uncertainty bounds and point estimates. Note that the
printing defaults of dplyr are not overridden in pvutils,
and less digits than expected may be printed. However, the additional
digits are available and printed if the data frame is extracted and
printed as a data frame, as demonstrated below:

## # A tibble: 1,306 × 23

##   drug   event     obs exp_prr ic2.5    ic ror97.5 exp_prr prr2.5   prr ror97.5

##   <chr>  <chr>   <int>   <dbl> <dbl> <dbl>  <dbl>   <dbl>  <dbl> <dbl>   <dbl>

## 1 Drug_Z Event_1    88    55.6  0.34  0.66   0.94    49.8   1.5   1.77    2.09
## 2 Drug_Z Event_2    75    52.4  0.17  0.51   0.82    48.4   1.28  1.55    1.87
## 3 Drug_V Event_2    80    56.9  0.15  0.49   0.79    52.4   1.27  1.53    1.84
## # ℹ 1,303 more rows
## # ℹ 12 more variables: exp_ror <dbl>, ror2.5 <dbl>, ror <dbl>, ror97.5 <dbl>,
…
## # A tibble: 6 × 4
##   report_id drug   event    group
##       <int> <chr>  <chr>    <dbl>
## 1         1 Drug_A Event_23     1
## 2         1 Drug_D Event_6      1
## 3         1 Drug_E Event_8      1
## 4         1 Drug_I Event_9      1
## 5         2 Drug_B Event_2      0
## 6         2 Drug_G Event_13     0

## # A tibble: 1,808 × 24
##    drug   event   group   obs exp_rrr ic2.5    ic ic97.5 exp_prr prr2.5   prr
##    <chr>  <chr>   <dbl> <int>   <dbl> <dbl> <dbl>  <dbl>   <dbl>  <dbl> <dbl>
##  1 Drug_Z Event_1     0    45    26.5  0.3   0.75   1.14    23.4   1.54  1.92
##  2 Drug_Z Event_1     1    43    29.1  0.09  0.56   0.96    26.5   1.28  1.63
##  3 Drug_Z Event_2     0    33    24.6 -0.12  0.42   0.87    23.2   1.07  1.42
##  4 Drug_Z Event_2     1    42    27.8  0.12  0.59   0.99    25.1   1.3   1.67
##  5 Drug_V Event_2     0    34    26.0 -0.14  0.38   0.82    24.6   1.04  1.38
##  6 Drug_V Event_2     1    46    31.0  0.12  0.56   0.95    27.8   1.3   1.66
##  7 Drug_V Event_1     0    40    28.0  0.03  0.51   0.92    25.8   1.21  1.55
##  8 Drug_V Event_1     1    42    32.4 -0.1   0.37   0.77    30.3   1.07  1.38
##  9 Drug_U Event_2     0    42    31.5 -0.06  0.41   0.81    29.1   1.11  1.44
## 10 Drug_U Event_2     1    37    26.8 -0.04  0.46   0.89    24.9   1.14  1.49
## # ℹ 1,798 more rows
## # ℹ 13 more variables: prr97.5 <dbl>, exp_ror <dbl>, ror2.5 <dbl>, ror <dbl>,
## #   ror97.5 <dbl>, n_drug <int>, n_event <int>, n_tot <int>, n_event_prr <int>,
## #   n_tot_prr <int>, b <int>, c <int>, d <int>
…
